<?xml version="1.0" encoding="UTF-8" standalone="no"?>
<!DOCTYPE svg PUBLIC "-//W3C//DTD SVG 1.1//EN"
 "http://www.w3.org/Graphics/SVG/1.1/DTD/svg11.dtd">
<!-- Generated by graphviz version 2.26.3 (20100126.1600)
 -->
<!-- Title: test Pages: 1 -->
<svg width="706pt" height="472pt"
 viewBox="0.00 0.00 706.00 472.00" xmlns="http://www.w3.org/2000/svg" xmlns:xlink="http://www.w3.org/1999/xlink">
<g id="graph1" class="graph" transform="scale(1 1) rotate(0) translate(4 468)">
<title>test</title>
<polygon fill="white" stroke="white" points="-4,5 -4,-468 703,-468 703,5 -4,5"/>
<!-- node1 -->
<g id="node1" class="node"><title>node1</title>
<polygon fill="white" stroke="black" points="93.5,-362.5 93.5,-429.5 274.5,-429.5 274.5,-362.5 93.5,-362.5"/>
<text text-anchor="middle" x="184" y="-412.9" font-family="Times Roman,serif" font-size="14.00">contributors_userprofile</text>
<polyline fill="none" stroke="black" points="93.5,-404.5 274.5,-404.5 "/>
<text text-anchor="start" x="101.5" y="-387.9" font-family="Times Roman,serif" font-size="14.00">&#45; id</text>
<text text-anchor="start" x="101.5" y="-370.9" font-family="Times Roman,serif" font-size="14.00">&#45; user_id</text>
</g>
<!-- node2 -->
<g id="node2" class="node"><title>node2</title>
<polygon fill="white" stroke="black" points="64,-173 64,-291 234,-291 234,-173 64,-173"/>
<text text-anchor="middle" x="149" y="-274.4" font-family="Times Roman,serif" font-size="14.00">contributors_identifier</text>
<polyline fill="none" stroke="black" points="64,-266 234,-266 "/>
<text text-anchor="start" x="72" y="-249.4" font-family="Times Roman,serif" font-size="14.00">&#45; id</text>
<text text-anchor="start" x="72" y="-232.4" font-family="Times Roman,serif" font-size="14.00">&#45; type</text>
<text text-anchor="start" x="72" y="-215.4" font-family="Times Roman,serif" font-size="14.00">&#45; name</text>
<text text-anchor="start" x="72" y="-198.4" font-family="Times Roman,serif" font-size="14.00">&#45; user_id</text>
<text text-anchor="start" x="72" y="-181.4" font-family="Times Roman,serif" font-size="14.00">&#45; hidden</text>
</g>
<!-- node6 -->
<g id="node6" class="node"><title>node6</title>
<polygon fill="white" stroke="black" points="0,-17.5 0,-118.5 278,-118.5 278,-17.5 0,-17.5"/>
<text text-anchor="middle" x="139" y="-101.9" font-family="Times Roman,serif" font-size="14.00">contributors_contributiontypesettings</text>
<polyline fill="none" stroke="black" points="0,-93.5 278,-93.5 "/>
<text text-anchor="start" x="8" y="-76.9" font-family="Times Roman,serif" font-size="14.00">&#45; id</text>
<text text-anchor="start" x="8" y="-59.9" font-family="Times Roman,serif" font-size="14.00">&#45; identifier_id</text>
<text text-anchor="start" x="8" y="-42.9" font-family="Times Roman,serif" font-size="14.00">&#45; type_id</text>
<text text-anchor="start" x="8" y="-25.9" font-family="Times Roman,serif" font-size="14.00">&#45; hidden</text>
</g>
<!-- node2&#45;&gt;node6 -->
<g id="edge8" class="edge"><title>node2&#45;&gt;node6</title>
<path fill="none" stroke="black" d="M145.39,-172.792C144.521,-158.543 143.591,-143.297 142.718,-128.969"/>
<polygon fill="black" stroke="black" points="146.195,-128.494 142.093,-118.725 139.208,-128.92 146.195,-128.494"/>
</g>
<!-- node7 -->
<g id="node7" class="node"><title>node7</title>
<polygon fill="white" stroke="black" points="296,-0.5 296,-135.5 488,-135.5 488,-0.5 296,-0.5"/>
<text text-anchor="middle" x="392" y="-118.9" font-family="Times Roman,serif" font-size="14.00">contributors_contribution</text>
<polyline fill="none" stroke="black" points="296,-110.5 488,-110.5 "/>
<text text-anchor="start" x="304" y="-93.9" font-family="Times Roman,serif" font-size="14.00">&#45; id</text>
<text text-anchor="start" x="304" y="-76.9" font-family="Times Roman,serif" font-size="14.00">&#45; type_id</text>
<text text-anchor="start" x="304" y="-59.9" font-family="Times Roman,serif" font-size="14.00">&#45; identifier_id</text>
<text text-anchor="start" x="304" y="-42.9" font-family="Times Roman,serif" font-size="14.00">&#45; begin</text>
<text text-anchor="start" x="304" y="-25.9" font-family="Times Roman,serif" font-size="14.00">&#45; until</text>
<text text-anchor="start" x="304" y="-8.9" font-family="Times Roman,serif" font-size="14.00">&#45; url</text>
</g>
<!-- node2&#45;&gt;node7 -->
<g id="edge6" class="edge"><title>node2&#45;&gt;node7</title>
<path fill="none" stroke="black" d="M234.331,-174.41C251.372,-162.91 269.457,-150.704 287.069,-138.818"/>
<polygon fill="black" stroke="black" points="289.339,-141.508 295.67,-133.013 285.423,-135.706 289.339,-141.508"/>
</g>
<!-- node3 -->
<g id="node3" class="node"><title>node3</title>
<polygon fill="white" stroke="black" points="489.5,-354 489.5,-438 698.5,-438 698.5,-354 489.5,-354"/>
<text text-anchor="middle" x="594" y="-421.4" font-family="Times Roman,serif" font-size="14.00">contributors_source_admins</text>
<polyline fill="none" stroke="black" points="489.5,-413 698.5,-413 "/>
<text text-anchor="start" x="497.5" y="-396.4" font-family="Times Roman,serif" font-size="14.00">&#45; id</text>
<text text-anchor="start" x="497.5" y="-379.4" font-family="Times Roman,serif" font-size="14.00">&#45; source_id</text>
<text text-anchor="start" x="497.5" y="-362.4" font-family="Times Roman,serif" font-size="14.00">&#45; user_id</text>
</g>
<!-- node4 -->
<g id="node4" class="node"><title>node4</title>
<polygon fill="white" stroke="black" points="292,-328.5 292,-463.5 472,-463.5 472,-328.5 292,-328.5"/>
<text text-anchor="middle" x="382" y="-446.9" font-family="Times Roman,serif" font-size="14.00">contributors_source</text>
<polyline fill="none" stroke="black" points="292,-438.5 472,-438.5 "/>
<text text-anchor="start" x="300" y="-421.9" font-family="Times Roman,serif" font-size="14.00">&#45; id</text>
<text text-anchor="start" x="300" y="-404.9" font-family="Times Roman,serif" font-size="14.00">&#45; name</text>
<text text-anchor="start" x="300" y="-387.9" font-family="Times Roman,serif" font-size="14.00">&#45; desc</text>
<text text-anchor="start" x="300" y="-370.9" font-family="Times Roman,serif" font-size="14.00">&#45; url</text>
<text text-anchor="start" x="300" y="-353.9" font-family="Times Roman,serif" font-size="14.00">&#45; auth_token</text>
<text text-anchor="start" x="300" y="-336.9" font-family="Times Roman,serif" font-size="14.00">&#45; implementation_notes</text>
</g>
<!-- node5 -->
<g id="node5" class="node"><title>node5</title>
<polygon fill="white" stroke="black" points="270.5,-173 270.5,-291 493.5,-291 493.5,-173 270.5,-173"/>
<text text-anchor="middle" x="382" y="-274.4" font-family="Times Roman,serif" font-size="14.00">contributors_contributiontype</text>
<polyline fill="none" stroke="black" points="270.5,-266 493.5,-266 "/>
<text text-anchor="start" x="278.5" y="-249.4" font-family="Times Roman,serif" font-size="14.00">&#45; id</text>
<text text-anchor="start" x="278.5" y="-232.4" font-family="Times Roman,serif" font-size="14.00">&#45; source_id</text>
<text text-anchor="start" x="278.5" y="-215.4" font-family="Times Roman,serif" font-size="14.00">&#45; name</text>
<text text-anchor="start" x="278.5" y="-198.4" font-family="Times Roman,serif" font-size="14.00">&#45; desc</text>
<text text-anchor="start" x="278.5" y="-181.4" font-family="Times Roman,serif" font-size="14.00">&#45; contrib_desc</text>
</g>
<!-- node4&#45;&gt;node5 -->
<g id="edge10" class="edge"><title>node4&#45;&gt;node5</title>
<path fill="none" stroke="black" d="M382,-328.348C382,-319.373 382,-310.161 382,-301.161"/>
<polygon fill="black" stroke="black" points="385.5,-301.114 382,-291.114 378.5,-301.114 385.5,-301.114"/>
</g>
<!-- node5&#45;&gt;node6 -->
<g id="edge4" class="edge"><title>node5&#45;&gt;node6</title>
<path fill="none" stroke="black" d="M294.271,-172.792C270.904,-157.021 245.725,-140.029 222.586,-124.412"/>
<polygon fill="black" stroke="black" points="224.407,-121.419 214.16,-118.725 220.491,-127.221 224.407,-121.419"/>
</g>
<!-- node5&#45;&gt;node7 -->
<g id="edge2" class="edge"><title>node5&#45;&gt;node7</title>
<path fill="none" stroke="black" d="M385.61,-172.792C386.143,-164.06 386.698,-154.952 387.249,-145.911"/>
<polygon fill="black" stroke="black" points="390.753,-145.95 387.869,-135.756 383.766,-145.524 390.753,-145.95"/>
</g>
</g>
</svg>
